…
```r
fisheries_tidy2 <- fisheries_tidy %>% 
  select(country, ISSCAAP_spgroupname, ASFIS_spcode, ASFIS_sciname, year, catch_tonnes)
```


```r
fisheries_tidy2
```

```
## # A tibble: 376,771 x 6
##    country ISSCAAP_spgroupname     ASFIS_spcode ASFIS_sciname year  catch_tonnes
##    <fct>   <fct>                   <fct>        <fct>         <chr> <chr>       
##  1 Albania Sharks, rays, chimaeras 10903XXXXX   Squatinidae   1995  0 0         
##  2 Albania Sharks, rays, chimaeras 10903XXXXX   Squatinidae   1996  53          
##  3 Albania Sharks, rays, chimaeras 10903XXXXX   Squatinidae   1997  20          
##  4 Albania Sharks, rays, chimaeras 10903XXXXX   Squatinidae   1998  31          
##  5 Albania Sharks, rays, chimaeras 10903XXXXX   Squatinidae   1999  30          
##  6 Albania Sharks, rays, chimaeras 10903XXXXX   Squatinidae   2000  30          
##  7 Albania Sharks, rays, chimaeras 10903XXXXX   Squatinidae   2001  16          
##  8 Albania Sharks, rays, chimaeras 10903XXXXX   Squatinidae   2002  79          
##  9 Albania Sharks, rays, chimaeras 10903XXXXX   Squatinidae   2003  1           
## 10 Albania Sharks, rays, chimaeras 10903XXXXX   Squatinidae   2004  4           
## # … with 376,761 more rows
```
…
